Gabriel Palucci Rosa - Utilizando tidymodels | palmerpenguins
…
# A tibble: 2 × 5
  term          estimate std.error statistic      p.value
  <chr>            <dbl>     <dbl>     <dbl>        <dbl>
1 (Intercept)       75.6     599.      0.126 0.900       
2 bill_depth_mm    197.       32.6     6.05  0.0000000270

A patir do modelo criado podemos

peso_pred <- lm_fit %>% 
  predict(new_data = pinguin_test)

peso_pred

# A tibble: 46 × 1
   .pred
   <dbl>
 1 3510.
 2 4142.
 3 4241.
 4 3589.
 5 3708.
 6 3688.
 7 3767.
 8 3866.
 9 3471.
10 3747.
# ℹ 36 more rows

Para observar a avaliação podemos utilizar o bind_cols

peso_test_results <- pinguin_test %>% 
  select(body_mass_g,bill_depth_mm) %>% 
  bind_cols(peso_pred)

peso_test_results

# A tibble: 46 × 3
   body_mass_g bill_depth_mm .pred
         <int>         <dbl> <dbl>
 1        3800          17.4 3510.
 2        3650          20.6 4142.
 3        4400          21.1 4241.
 4        3700          17.8 3589.
 5        3325          18.4 3708.
 6        3400          18.3 3688.
 7        3600          18.7 3767.
 8        3800          19.2 3866.
 9        3800          17.2 3471.
10        3550          18.6 3747.
# ℹ 36 more rows
…
